{
    "srcds": {
        "tag": "^(srcds)$",
        "startup": {
            "done": "Assigned anonymous gameserver Steam ID",
            "userInteraction": []
        },
        "stop": "quit",
        "configs": {},
        "log": {
            "custom": true,
            "location": "logs/latest.log"
        },
        "query": "protocol-valve"
    },
    "ark": {
        "tag": "^(ark)$",
        "symlink": "srcds",
        "startup": {
            "done": "Setting breakpad minidump AppID"
        },
        "stop": "^C",
        "query": "none"
    }
}
